package net.colt.novitas.pricing.rules
 
import net.colt.novitas.pricing.PortData;
import net.colt.novitas.pricing.ConnectionData;
import net.colt.novitas.pricing.TermData;


rule "EU Metro 10Mb"
    when
        $c : ConnectionData( rental <= 0.0, term == TermData.FIXED, bandwidth == 10000, a_end.country in ("AT","BE","FR","DE","IR","IT","ES"), reach == ConnectionData.METRO, a_end.porttype == PortData.ETHERNET_PORT, b_end.porttype == PortData.CLOUD_HOSTED_PORT)
    then
        $c.setRental( 250.0f );
        $c.setCurrency( "EUR" );
        update( $c );
end

rule "EU Metro 20Mb"
    when
        $c : ConnectionData( rental <= 0.0, term == TermData.FIXED, bandwidth == 20000, a_end.country in ("AT","BE","FR","DE","IR","IT","ES"), reach == ConnectionData.METRO, a_end.porttype == PortData.ETHERNET_PORT, b_end.porttype == PortData.CLOUD_HOSTED_PORT)
    then
        $c.setRental( 259.0f );
        $c.setCurrency( "EUR" );
        update( $c );
end

