package net.colt.novitas.pricing.rules
 
import net.colt.novitas.pricing.PortData;
import net.colt.novitas.pricing.ConnectionData;
import net.colt.novitas.pricing.LocationData;

rule "Zone Brussels"
    when
        $c : ConnectionData( a_end.zone == LocationData.NOZONE, a_end.metro in ("Brussels"))
    then
        $c.getA_end().setZone( LocationData.EU1);
        System.out.println("Set Brussels A end to EU1");
        update($c);
end

rule "Zone Amsterdam"
    when
        $c : ConnectionData( b_end.zone == LocationData.NOZONE, b_end.metro in ("Amsterdam"))
    then
        $c.getB_end().setZone( LocationData.EU1);
        System.out.println("Set Amsterdam B End to EU1");
        update($c);
end

rule "InternationZone"
	when 
		$c : ConnectionData( internationalzone ==0,	a_end.zone in (LocationData.EU1), b_end.zone in (LocationData.EU1))	
	then		
		$c.setInternationalzone(1);	
		update($c);
end
